5 Creating a word frequency table | A Gentle Introduction to Text Analysis in R
…
5.3.1 Removing stopwords

Having generated this basic word frequency table, it is now time to edit and clean it, so as to ensure that it contains meaningful information.

One issue with our frequency table (diario_frequency_table) that you may have noticed is that many of the words are (predictably) common words that don’t really inform us about the distinctive semantic features of the text collection. For example, the word “the” appears 857 times in our collection, but for most research projects, this would be completely uninteresting, and may even obscure more interesting features of interest. When working with text data, it is therefore common practice to excise these common words (known as “stop words”) from a dataset of interest, before carrying out any further analysis or visualization tasks

Let’s now go ahead and excise stop words diario_frequency_table. In order to remove stop words, we must first compile them, which can be a tedious task; luckily, however, many text mining and analysis packages provide pre-assembled collections of stop words that we can use off the shelf, without having to define our own.

Within the tidytext package, stop words are contained in a data frame that is assigned to an object named stop_words. We can preview some of these words by printing the contents of stop_words to the console:

# prints contents of "stop_words"
stop_words

## # A tibble: 1,149 × 2
##    word        lexicon
##    <chr>       <chr>  
##  1 a           SMART  
##  2 a's         SMART  
##  3 able        SMART  
##  4 about       SMART  
##  5 above       SMART  
##  6 according   SMART  
##  7 accordingly SMART  
##  8 across      SMART  
##  9 actually    SMART  
## 10 after       SMART  
## # … with 1,139 more rows
…
